module gitlab.com/praxis-hxp/google-drive-cli

go 1.17

require (
	golang.org/x/oauth2 v0.3.0
	google.golang.org/api v0.105.0
)

require (
	cloud.google.com/go/compute v1.13.0 // indirect
	cloud.google.com/go/compute/metadata v0.2.2 // indirect
	github.com/golang/groupcache v0.0.0-20200121045136-8c9f03a8e57e // indirect
	github.com/golang/protobuf v1.5.2 // indirect
	github.com/google/uuid v1.3.0 // indirect
	github.com/googleapis/enterprise-certificate-proxy v0.2.0 // indirect
	github.com/googleapis/gax-go/v2 v2.7.0 // indirect
	github.com/inconshreveable/mousetrap v1.0.1 // indirect
	github.com/spf13/cobra v1.6.1 // indirect
	github.com/spf13/pflag v1.0.5 // indirect
	go.opencensus.io v0.24.0 // indirect
	golang.org/x/net v0.3.0 // indirect
	golang.org/x/sys v0.3.0 // indirect
	golang.org/x/text v0.5.0 // indirect
	google.golang.org/appengine v1.6.7 // indirect
	google.golang.org/genproto v0.0.0-20221206210731-b1a01be3a5f6 // indirect
	google.golang.org/grpc v1.51.0 // indirect
	google.golang.org/protobuf v1.28.1 // indirect
)
